digraph {
	ratio=0.5;
	bgcolor="#FFFFFF00";

	subgraph cluster_main {
		label="Main thread";
		style=dotted;

		main [label="main()"];
		int [label="Interrupt"];

		draw [label="draw()"];
	}

	subgraph cluster_request {
		label="Request thread";
		style=dotted;

		query [label="query()"];
	}

	subgraph cluster_input {
		label="Input thread";
		style=dotted;

		wait_input [label="wait_input()"];
		wait_card [label="wait_card()"];
	}

	main -> draw;
	wait_reply -> int [label="POSIX Signal"];

	draw -> wait_input -> wait_reply;
	draw -> wait_card -> wait_reply;
	draw -> query -> wait_reply;
}
